{
    "iso_639_1": "en",
    "id": 1,
    "page": 1,
    "iso_3166_1": "US",
    "total_results": 49,
    "object_ids": {20 items},
    "revenue": 22376320295,
    "total_pages": 3,
    "name": "The Marvel Universe",
    "public": true,
    "comments": {20 items},
    "sort_by": "primary_release_date.desc",
    "description": "The idea behind this list is to collect the live action comic book movies from within the Marvel franchise. Last updated on Dec 18, 2013.",
    "backdrop_path": "/kaIfm5ryEOwYg8mLbq8HkPuM1Fo.jpg",
    "results": [
        {
            "poster_path": "/f2pj3SSj1GdFSrS5bUojT56umL6.jpg",
            "popularity": 8.91,
            "vote_count": 522,
            "video": false,
            "media_type": "movie",
            "id": 10658,
            "adult": false,
            "backdrop_path": "/gdkjHuMPwsdE3mw5dchAeRI1Wl2.jpg",
            "original_language": "en",
            "original_title": "Howard the Duck",
            "genre_ids": [
                35,
                14,
                878
            ],
            "title": "Howard the Duck",
            "vote_average": 5.2,
            "overview": "A scientific experiment unknowingly brings extraterrestrial life forms to the Earth through a laser beam. First is the cigar smoking drake Howard from the duck's planet. A few kids try to keep him from the greedy scientists and help him back to his planet. But then a much less friendly being arrives through the beam...",
            "release_date": "1986-08-01"
        },
        {
            "poster_path": "/9OjFAb9r21TNJIbbMVAZtbj3I60.jpg",
            "popularity": 8.033,
            "vote_count": 265,
            "video": false,
            "media_type": "movie",
            "id": 8867,
            "adult": false,
            "backdrop_path": "/uVlIDxjubb3Trk18NhMCf7b3yiN.jpg",
            "original_language": "en",
            "original_title": "The Punisher",
            "genre_ids": [
                28,
                53
            ],
            "title": "The Punisher",
            "vote_average": 5.7,
            "overview": "The avenging angel of Marvel Comics fame comes brilliantly to life in this searing action-adventure thriller! Dolph Lundgren stars as Frank Castle, a veteran cop who loses his entire family to a mafia car bomb. Only his ex-partner believes Castle survived the blast to become THE PUNISHER ... a shadowy, invincible fighter against evil who lives for total revenge on his mob enemies.",
            "release_date": "1989-10-05"
        },
        {
            "poster_path": "/umO9ZJ63dNtT6Z5ZehNunGn884I.jpg",
            "popularity": 6.721,
            "vote_count": 209,
            "video": false,
            "media_type": "movie",
            "id": 13995,
            "adult": false,
            "backdrop_path": "/a1tNE5nsAMIMpBs0yrweIdzXymO.jpg",
            "original_language": "en",
            "original_title": "Captain America",
            "genre_ids": [
                28,
                878,
                10752
            ],
            "title": "Captain America",
            "vote_average": 4.6,
            "overview": "During World War II, a brave, patriotic American Soldier undergoes experiments to become a new supersoldier, "Captain America." Racing to Germany to sabotage the rockets of Nazi baddie "Red Skull", Captain America winds up frozen until the 1990s. He reawakens to find that the Red Skull has changed identities and is now planning to kidnap the President of the United States.",
            "release_date": "1990-12-14"
        },
        {
            "poster_path": "/xaUuroRciJeSAVnIvGu2c9bvkQd.jpg",
            "popularity": 5.701,
            "vote_count": 82,
            "video": false,
            "media_type": "movie",
            "id": 22059,
            "adult": false,
            "backdrop_path": null,
            "original_language": "en",
            "original_title": "The Fantastic Four",
            "genre_ids": [
                28,
                12,
                878
            ],
            "title": "The Fantastic Four",
            "vote_average": 4.7,
            "overview": "The Fantastic Four is an unreleased low-budget feature film completed in 1994. Created to secure copyright to the property, the producers never intended it for release although the director, actors, and other participants were not informed of this fact. It was produced by low-budget specialist Roger Corman and Bernd Eichinger (who also produced another Fantastic Four movie in 2005).",
            "release_date": "1994-01-01"
        },
        {
            "poster_path": "/hEXJCBVZYWT8qBMwGJoSsvtnVhr.jpg",
            "popularity": 42.918,
            "vote_count": 3562,
            "video": false,
            "media_type": "movie",
            "id": 36647,
            "adult": false,
            "backdrop_path": "/dGnDGHD5vmaRow4BzAiuJaGwIz3.jpg",
            "original_language": "en",
            "original_title": "Blade",
            "genre_ids": [
                28,
                27
            ],
            "title": "Blade",
            "vote_average": 6.6,
            "overview": "When Blade's mother was bitten by a vampire during pregnancy, she did not know that she gave her son a special gift while dying—all the good vampire attributes in combination with the best human skills. Blade and his mentor battle an evil vampire rebel who plans to take over the outdated vampire council, capture Blade and resurrect a voracious blood god.",
            "release_date": "1998-08-21"
        },
        {
            "vote_count": 7649,
            "popularity": 1.549,
            "id": 36657,
            "video": false,
            "media_type": "movie",
            "vote_average": 7,
            "title": "X-Men",
            "release_date": "2000-07-13",
            "original_language": "en",
            "original_title": "X-Men",
            "genre_ids": [
                12,
                28,
                878
            ],
            "backdrop_path": "/psgFJzsb6ae49PeWqINqGEIZZBt.jpg",
            "adult": false,
            "overview": "Two mutants, Rogue and Wolverine, come to a private academy for their kind whose resident superhero team, the X-Men, must oppose a terrorist organization with similar powers.",
            "poster_path": "/k01Q6ATbfzNJgw4Zuoj0LTY3T9x.jpg"
        },
        {
            "poster_path": "/jlURNpXCMK830CsGRd939PJLh8c.jpg",
            "popularity": 19.486,
            "vote_count": 2884,
            "video": false,
            "media_type": "movie",
            "id": 36586,
            "adult": false,
            "backdrop_path": "/2n0kjNEI3uF0ju9H5jiE3rBk5C0.jpg",
            "original_language": "en",
            "original_title": "Blade II",
            "genre_ids": [
                28,
                14,
                27,
                53
            ],
            "title": "Blade II",
            "vote_average": 6.4,
            "overview": "A rare mutation has occurred within the vampire community - The Reaper. A vampire so consumed with an insatiable bloodlust that they prey on vampires as well as humans, transforming victims who are unlucky enough to survive into Reapers themselves. Blade is asked by the Vampire Nation for his help in preventing a nightmare plague that would wipe out both humans and vampires.",
            "release_date": "2002-03-22"
        },
        {
            "poster_path": "/rZd0y1X1Gw4t5B3f01Qzj8DYY66.jpg",
            "popularity": 25.555,
            "vote_count": 11310,
            "video": false,
            "media_type": "movie",
            "id": 557,
            "adult": false,
            "backdrop_path": "/5yAEbTXiJZQpNx7eCyyOhnY9MYw.jpg",
            "original_language": "en",
            "original_title": "Spider-Man",
            "genre_ids": [
                28,
                14
            ],
            "title": "Spider-Man",
            "vote_average": 7.1,
            "overview": "After being bitten by a genetically altered spider, nerdy high school student Peter Parker is endowed with amazing powers.",
            "release_date": "2002-05-01"
        },
        {
            "poster_path": "/dNVEqwgIdrwWQL3zXI5mQG60oM5.jpg",
            "popularity": 14.141,
            "vote_count": 3224,
            "video": false,
            "media_type": "movie",
            "id": 9480,
            "adult": false,
            "backdrop_path": "/nQCdIwZEBakwbP2e5fQhfYKHQza.jpg",
            "original_language": "en",
            "original_title": "Daredevil",
            "genre_ids": [
                28,
                80,
                14,
                878,
                53
            ],
            "title": "Daredevil",
            "vote_average": 5.1,
            "overview": "He dwells in a world of eternal night, but the blackness is filled with sounds and scents, tastes and textures that most cannot perceive. Although attorney Matt Murdock is blind, his other four senses function with superhuman sharpness. By day, Murdock represents the downtrodden. At night he is Daredevil, a masked vigilante stalking the dark streets of the city, a relentless avenger of justice.",
            "release_date": "2003-02-14"
        },
        {
            "vote_count": 6844,
            "popularity": 1.303,
            "id": 36658,
            "video": false,
            "media_type": "movie",
            "vote_average": 7,
            "title": "X2",
            "release_date": "2003-04-24",
            "original_language": "en",
            "original_title": "X2",
            "genre_ids": [
                12,
                28,
                878,
                53
            ],
            "backdrop_path": "/u2FxA8fDt0uQAnHKTwWGgkPShoL.jpg",
            "adult": false,
            "overview": "Professor Charles Xavier and his team of genetically gifted superheroes face a rising tide of anti-mutant sentiment led by Col. William Stryker. Storm, Wolverine and Jean Grey must join their usual nemeses—Magneto and Mystique—to unhinge Stryker's scheme to exterminate all mutants.",
            "poster_path": "/2ucMY4dPE4gGLPgDdYgyggYHBkF.jpg"
        },
        {
            "vote_count": 3621,
            "popularity": 16.355,
            "id": 1927,
            "video": false,
            "media_type": "movie",
            "vote_average": 5.4,
            "title": "Hulk",
            "release_date": "2003-06-19",
            "original_language": "en",
            "original_title": "Hulk",
            "genre_ids": [
                28,
                878
            ],
            "backdrop_path": "/kVxquPLBzAIq2NmlbWjTsfZBFh5.jpg",
            "adult": false,
            "overview": "Bruce Banner, a genetics researcher with a tragic past, suffers massive radiation exposure in his laboratory that causes him to transform into a raging green monster when he gets angry.",
            "poster_path": "/ogCQV6mnLtCJuiiHtMB83jvSRfY.jpg"
        },
        {
            "poster_path": "/x3PsvqYqXdlSCHaylDQWmXRBxFI.jpg",
            "popularity": 13.3,
            "vote_count": 1572,
            "video": false,
            "media_type": "movie",
            "id": 7220,
            "adult": false,
            "backdrop_path": "/9VgOCnaG4GY1zzz8QYvtPu8msNs.jpg",
            "original_language": "en",
            "original_title": "The Punisher",
            "genre_ids": [
                28,
                80,
                18
            ],
            "title": "The Punisher",
            "vote_average": 6.2,
            "overview": "When undercover FBI agent Frank Castle's wife and son are slaughtered, he becomes 'the Punisher' -- a ruthless vigilante willing to go to any length to avenge his family.",
            "release_date": "2004-04-15"
        },
        {
            "poster_path": "/olxpyq9kJAZ2NU1siLshhhXEPR7.jpg",
            "popularity": 10.471,
            "vote_count": 9184,
            "video": false,
            "media_type": "movie",
            "id": 558,
            "adult": false,
            "backdrop_path": "/inHzBSWqQhHaamuBSZ0I0YQ1OQf.jpg",
            "original_language": "en",
            "original_title": "Spider-Man 2",
            "genre_ids": [
                28,
                12,
                14
            ],
            "title": "Spider-Man 2",
            "vote_average": 7,
            "overview": "Peter Parker is going through a major identity crisis. Burned out from being Spider-Man, he decides to shelve his superhero alter ego, which leaves the city suffering in the wake of carnage left by the evil Doc Ock. In the meantime, Parker still can't act on his feelings for Mary Jane Watson, a girl he's loved since childhood.",
            "release_date": "2004-06-25"
        },
        {
            "poster_path": "/4WinsdHQBdh5aTt7Bd7T7dbUXbb.jpg",
            "popularity": 21.189,
            "vote_count": 2346,
            "video": false,
            "media_type": "movie",
            "id": 36648,
            "adult": false,
            "backdrop_path": "/ysLIi9nzMbUqi4dQh3tqblUb27o.jpg",
            "original_language": "en",
            "original_title": "Blade: Trinity",
            "genre_ids": [
                28,
                12,
                14,
                27,
                878,
                53
            ],
            "title": "Blade: Trinity",
            "vote_average": 5.8,
            "overview": "For years, Blade has fought against the vampires in the cover of the night. But now, after falling into the crosshairs of the FBI, he is forced out into the daylight, where he is driven to join forces with a clan of human vampire hunters he never knew existed—The Nightstalkers. Together with Abigail and Hannibal, two deftly trained Nightstalkers, Blade follows a trail of blood to the ancient creature that is also hunting him—the original vampire, Dracula.",
            "release_date": "2004-12-08"
        },
        {
            "poster_path": "/fHwqiCBXLUr61aenmuLGolfKNZY.jpg",
            "popularity": 12.843,
            "vote_count": 1372,
            "video": false,
            "media_type": "movie",
            "id": 9947,
            "adult": false,
            "backdrop_path": "/iFhGgSli19SEo1ZxZLSJ6sbr5kB.jpg",
            "original_language": "en",
            "original_title": "Elektra",
            "genre_ids": [
                28,
                14,
                878
            ],
            "title": "Elektra",
            "vote_average": 4.8,
            "overview": "Elektra the warrior survives a near-death experience, becomes an assassin-for-hire, and tries to protect her two latest targets, a single father and his young daughter, from a group of supernatural assassins.",
            "release_date": "2005-01-13"
        },
        {
            "poster_path": "/sYNOCHiWA9UDUHlPvRWztSo5hZV.jpg",
            "popularity": 19.96,
            "vote_count": 6332,
            "video": false,
            "media_type": "movie",
            "id": 9738,
            "adult": false,
            "backdrop_path": "/6RaH2Znu7dUQq7c8surf7hRp44f.jpg",
            "original_language": "en",
            "original_title": "Fantastic Four",
            "genre_ids": [
                28,
                12,
                14,
                878
            ],
            "title": "Fantastic Four",
            "vote_average": 5.7,
            "overview": "During a space voyage, four scientists are altered by cosmic rays: Reed Richards gains the ability to stretch his body; Sue Storm can become invisible; Johnny Storm controls fire; and Ben Grimm is turned into a super-strong … thing. Together, these "Fantastic Four" must now thwart the evil plans of Dr. Doom and save the world from certain destruction.",
            "release_date": "2005-06-29"
        },
        {
            "poster_path": "/9jsW4RurucTwCEtA5iWV2PmIv11.jpg",
            "popularity": 1.13,
            "vote_count": 6527,
            "video": false,
            "media_type": "movie",
            "id": 36668,
            "adult": false,
            "backdrop_path": "/w3Yc8wi2jYLaOyCW6b6svf1B0MG.jpg",
            "original_language": "en",
            "original_title": "X-Men: The Last Stand",
            "genre_ids": [
                28,
                12,
                878,
                53
            ],
            "title": "X-Men: The Last Stand",
            "vote_average": 6.4,
            "overview": "When a cure is found to treat mutations, lines are drawn amongst the X-Men—led by Professor Charles Xavier—and the Brotherhood, a band of powerful mutants organised under Xavier's former ally, Magneto.",
            "release_date": "2006-05-24"
        },
        {
            "poster_path": "/jnllnSq8u4d1oQPU7PsoAHD6bLU.jpg",
            "popularity": 15.248,
            "vote_count": 3691,
            "video": false,
            "media_type": "movie",
            "id": 1250,
            "adult": false,
            "backdrop_path": "/9cs9RuOS3A5YEh6r4opVrIGbiJy.jpg",
            "original_language": "en",
            "original_title": "Ghost Rider",
            "genre_ids": [
                28,
                14,
                27,
                53
            ],
            "title": "Ghost Rider",
            "vote_average": 5.4,
            "overview": "In order to save his dying father, young stunt cyclist Johnny Blaze sells his soul to Mephistopheles and sadly parts from the pure-hearted Roxanne Simpson, the love of his life. Years later, Johnny's path crosses again with Roxanne, now a go-getting reporter, and also with Mephistopheles, who offers to release Johnny's soul if Johnny becomes the fabled, fiery 'Ghost Rider'.",
            "release_date": "2007-02-16"
        },
        {
            "poster_path": "/2N9lhZg6VtVJoGCZDjXVC3a81Ea.jpg",
            "popularity": 21.683,
            "vote_count": 8208,
            "video": false,
            "media_type": "movie",
            "id": 559,
            "adult": false,
            "backdrop_path": "/7IBpOrw0ATwL1AOV97mtsceDpYs.jpg",
            "original_language": "en",
            "original_title": "Spider-Man 3",
            "genre_ids": [
                28,
                12,
                14
            ],
            "title": "Spider-Man 3",
            "vote_average": 6.2,
            "overview": "The seemingly invincible Spider-Man goes up against an all-new crop of villains—including the shape-shifting Sandman. While Spider-Man’s superpowers are altered by an alien organism, his alter ego, Peter Parker, deals with nemesis Eddie Brock and also gets caught up in a love triangle.",
            "release_date": "2007-05-01"
        },
        {
            "poster_path": "/fXpziQgnBnB4bLgjKhjTbLQumE5.jpg",
            "popularity": 17.483,
            "vote_count": 5411,
            "video": false,
            "media_type": "movie",
            "id": 1979,
            "adult": false,
            "backdrop_path": "/nq60mZOlrD4mZJg1T4hHUtWTIkN.jpg",
            "original_language": "en",
            "original_title": "Fantastic Four: Rise of the Silver Surfer",
            "genre_ids": [
                28,
                12,
                14,
                53
            ],
            "title": "Fantastic Four: Rise of the Silver Surfer",
            "vote_average": 5.5,
            "overview": "The Fantastic Four return to the big screen as a new and all powerful enemy threatens the Earth. The seemingly unstoppable 'Silver Surfer', but all is not what it seems and there are old and new enemies that pose a greater threat than the intrepid superheroes realize.",
            "release_date": "2007-06-13"
        }
    ],
    "average_rating": 6.04565,
    "runtime": 5734,
    "created_by": {4 items},
    "poster_path": "/coJVIUEOToAEGViuhclM7pXC75R.jpg"
}
